<svg width="23px" height="23px" viewBox="0 0 23 23" version="1.1" xmlns="http://www.w3.org/2000/svg" xmlns:xlink="http://www.w3.org/1999/xlink">
  <!-- Generator: Sketch 50.2 (55047) - http://www.bohemiancoding.com/sketch -->
  <desc>Created with Sketch.</desc>
  <defs></defs>
  <g id="Page-4" stroke="none" stroke-width="1" fill="none" fill-rule="evenodd" stroke-linecap="round" stroke-linejoin="round">
    <g id="contacts" transform="translate(-552.000000, -421.000000)" stroke="#5D647A" stroke-width="2">
      <g id="Group-166" transform="translate(553.000000, 422.000000)">
        <path d="M20.7617,10.3301 C20.7617,15.9481 16.2057,20.5001 10.5887,20.5001 C4.9707,20.5001 0.4127,15.9481 0.4127,10.3301 C0.4127,4.7081 4.9707,0.1571 10.5887,0.1571 C16.2057,0.1571 20.7617,4.7081 20.7617,10.3301 Z" id="Stroke-160"></path>
        <path d="M6.1758,10.3301 L15.1918,10.3301" id="Stroke-162"></path>
        <path d="M10.6816,14.8379 L10.6816,5.8249" id="Stroke-164"></path>
      </g>
    </g>
  </g>
</svg>